<svg xmlns="http://www.w3.org/2000/svg" width="36" height="36" viewBox="0 0 36 36">
  <metadata><?xpacket begin="﻿" id="W5M0MpCehiHzreSzNTczkc9d"?>
<x:xmpmeta xmlns:x="adobe:ns:meta/" x:xmptk="Adobe XMP Core 5.6-c142 79.160924, 2017/07/13-01:06:39        ">
   <rdf:RDF xmlns:rdf="http://www.w3.org/1999/02/22-rdf-syntax-ns#">
      <rdf:Description rdf:about=""/>
   </rdf:RDF>
</x:xmpmeta>
                                                                                                    
                                                                                                    
                                                                                                    
                                                                                                    
                                                                                                    
                                                                                                    
                                                                                                    
                                                                                                    
                                                                                                    
                                                                                                    
                                                                                                    
                                                                                                    
                                                                                                    
                                                                                                    
                                                                                                    
                                                                                                    
                                                                                                    
                                                                                                    
                                                                                                    
                                                                                                    
                           
<?xpacket end="w"?></metadata>
<defs>
    <style>
      .cls-1 {
        fill: #f34de1;
        fill-rule: evenodd;
      }
    </style>
  </defs>
  <path id="Forma_1" data-name="Forma 1" class="cls-1" d="M745.715,2006.49a16.077,16.077,0,0,0-7.267-17.38,0.622,0.622,0,1,0-.651,1.06,14.814,14.814,0,0,1,7.1,12.69,15.022,15.022,0,0,1-.356,3.2A4.354,4.354,0,1,0,745.715,2006.49Zm-2.06,6.92a3.1,3.1,0,1,1,3.1-3.1A3.1,3.1,0,0,1,743.655,2013.41Zm-7.963,3.22a14.787,14.787,0,0,1-5.692,1.13,14.939,14.939,0,0,1-10.562-4.4,4.34,4.34,0,1,0-3.093,1.3,4.264,4.264,0,0,0,2.1-.55,16.132,16.132,0,0,0,17.724,3.67A0.622,0.622,0,0,0,735.692,2016.63Zm-22.451-6.32a3.1,3.1,0,1,1,3.1,3.1A3.105,3.105,0,0,1,713.241,2010.31Zm1.242-7.94c0.015,0,.029.01,0.044,0.01a0.622,0.622,0,0,0,.619-0.58,14.818,14.818,0,0,1,10.688-13.23,4.34,4.34,0,1,0-.178-1.24,16.061,16.061,0,0,0-11.749,14.38A0.617,0.617,0,0,0,714.483,2002.37ZM730,1984.24a3.105,3.105,0,1,1-3.1,3.1A3.1,3.1,0,0,1,730,1984.24Z" transform="translate(-712 -1983)"/>
</svg>
