<svg xmlns="http://www.w3.org/2000/svg" width="25" height="36" viewBox="0 0 25 36">
  <metadata><?xpacket begin="﻿" id="W5M0MpCehiHzreSzNTczkc9d"?>
<x:xmpmeta xmlns:x="adobe:ns:meta/" x:xmptk="Adobe XMP Core 5.6-c142 79.160924, 2017/07/13-01:06:39        ">
   <rdf:RDF xmlns:rdf="http://www.w3.org/1999/02/22-rdf-syntax-ns#">
      <rdf:Description rdf:about=""/>
   </rdf:RDF>
</x:xmpmeta>
                                                                                                    
                                                                                                    
                                                                                                    
                                                                                                    
                                                                                                    
                                                                                                    
                                                                                                    
                                                                                                    
                                                                                                    
                                                                                                    
                                                                                                    
                                                                                                    
                                                                                                    
                                                                                                    
                                                                                                    
                                                                                                    
                                                                                                    
                                                                                                    
                                                                                                    
                                                                                                    
                           
<?xpacket end="w"?></metadata>
<defs>
    <style>
      .cls-1 {
        fill: #57d305;
        fill-rule: evenodd;
      }
    </style>
  </defs>
  <path id="Forma_1" data-name="Forma 1" class="cls-1" d="M1330.62,2226.89a4.6,4.6,0,1,0,4.56,4.6A4.594,4.594,0,0,0,1330.62,2226.89Zm0,7.89a3.285,3.285,0,1,1,3.25-3.29A3.28,3.28,0,0,1,1330.62,2234.78Zm8.72-12.09a12.434,12.434,0,0,0-17.68,0c-4.37,4.41-4.91,12.7-1.17,17.72L1330.5,2255l10-14.57C1344.25,2235.39,1343.71,2227.1,1339.34,2222.69Zm0.1,16.97-8.94,13.03-8.96-13.05c-3.39-4.55-2.9-12.04,1.04-16.02a11.154,11.154,0,0,1,15.84,0C1342.36,2227.6,1342.85,2235.09,1339.44,2239.66Z" transform="translate(-1318 -2219)"/>
</svg>
