<svg xmlns="http://www.w3.org/2000/svg" width="12" height="17" viewBox="0 0 12 17">
  <defs>
    <style>
      .cls-1 {
        fill: #5480c1;
        fill-rule: evenodd;
      }
    </style>
  </defs>
  <path id="icon5.svg" class="cls-1" d="M1455.13,1022.41h-0.23v-2.22a4.908,4.908,0,1,0-9.8,0,0.451,0.451,0,1,0,.9,0,4.007,4.007,0,1,1,8,0v2.22h-9.13a0.9,0.9,0,0,0-.87.92v5.92a2.688,2.688,0,0,0,2.6,2.75h6.8a2.688,2.688,0,0,0,2.6-2.75v-5.92A0.9,0.9,0,0,0,1455.13,1022.41Zm-0.03,6.84a1.754,1.754,0,0,1-1.7,1.8h-6.8a1.754,1.754,0,0,1-1.7-1.8v-5.89h10.2v5.89h0Zm-5.1-.2a1.778,1.778,0,1,0-1.68-1.78A1.733,1.733,0,0,0,1450,1029.05Zm0-2.61a0.832,0.832,0,1,1-.78.83A0.812,0.812,0,0,1,1450,1026.44Z" transform="translate(-1444 -1015)"/>
</svg>
