<svg xmlns="http://www.w3.org/2000/svg" width="15" height="15" viewBox="0 0 15 15">
  <defs>
    <style>
      .cls-1 {
        fill: #5480c1;
        fill-rule: evenodd;
      }
    </style>
  </defs>
  <path id="icon7.svg" class="cls-1" d="M1444.04,1254.97a15.96,15.96,0,0,0,5.31,4.15,8.38,8.38,0,0,0,2.98.87,1.477,1.477,0,0,0,.21.01,2.468,2.468,0,0,0,1.91-.82l0.01-.01a7,7,0,0,1,.6-0.62c0.15-.14.3-0.29,0.44-0.44a1.488,1.488,0,0,0,0-2.23l-1.88-1.87a1.532,1.532,0,0,0-1.1-.51,1.6,1.6,0,0,0-1.11.5l-1.11,1.12c-0.11-.06-0.21-0.11-0.31-0.16l-0.35-.19a11.763,11.763,0,0,1-2.82-2.56,6.711,6.711,0,0,1-.96-1.52c0.3-.26.57-0.54,0.84-0.81,0.09-.1.19-0.19,0.28-0.29a1.582,1.582,0,0,0,.52-1.12,1.56,1.56,0,0,0-.52-1.12l-0.92-.92c-0.11-.11-0.22-0.22-0.32-0.33-0.21-.21-0.42-0.43-0.64-0.62a1.531,1.531,0,0,0-1.09-.48,1.614,1.614,0,0,0-1.12.48l-1.16,1.16a2.391,2.391,0,0,0-.72,1.53,5.662,5.662,0,0,0,.44,2.49A14.285,14.285,0,0,0,1444.04,1254.97Zm-2.27-6.73a1.676,1.676,0,0,1,.5-1.06l1.16-1.15a0.824,0.824,0,0,1,.58-0.27,0.8,0.8,0,0,1,.56.27c0.21,0.19.4,0.4,0.61,0.61l0.33,0.33,0.93,0.93a0.725,0.725,0,0,1,0,1.16l-0.29.29c-0.29.29-.56,0.57-0.86,0.83l-0.02.02a0.589,0.589,0,0,0-.15.69c0,0.01,0,.02.01,0.02a7.18,7.18,0,0,0,1.09,1.78,12.534,12.534,0,0,0,3.01,2.73,4.1,4.1,0,0,0,.41.22,2.737,2.737,0,0,1,.34.19,0.052,0.052,0,0,1,.04.02,0.674,0.674,0,0,0,.3.08,0.663,0.663,0,0,0,.47-0.22l1.16-1.16a0.836,0.836,0,0,1,.57-0.28,0.819,0.819,0,0,1,.56.28l1.88,1.87a0.749,0.749,0,0,1-.01,1.17q-0.2.21-.42,0.42c-0.22.21-.44,0.43-0.65,0.67a1.712,1.712,0,0,1-1.34.57c-0.05,0-.11-0.01-0.16-0.01a7.4,7.4,0,0,1-2.69-.8,15.245,15.245,0,0,1-5.06-3.95,13.786,13.786,0,0,1-2.46-4.09A5.008,5.008,0,0,1,1441.77,1248.24Z" transform="translate(-1441 -1245)"/>
</svg>
