<svg xmlns="http://www.w3.org/2000/svg" width="112" height="112" viewBox="0 0 112 112">
  <defs>
    <style>
      .cls-1 {
        fill: #fff;
        fill-rule: evenodd;
      }
    </style>
  </defs>
  <path id="icon1.svg" class="cls-1" d="M643.891,897a32.377,32.377,0,0,0-18.282,59.054A56.067,56.067,0,0,0,588,1009h8.733a47.257,47.257,0,0,1,47.158-47.25A32.375,32.375,0,0,0,643.891,897Zm0,56a23.625,23.625,0,1,1,23.579-23.625A23.628,23.628,0,0,1,643.891,953Zm37.77,28.875V963.5h-8.733v18.375H654.589v8.75h18.339V1009h8.733V990.625H700v-8.75H681.661Z" transform="translate(-588 -897)"/>
</svg>
